-0.000000
-0.000000
0.000013
0.000033
0.000051
0.000055
0.000087
0.000091
0.000095
0.000138
0.000134
0.000145
0.000177
0.000176
0.000190
0.000323
0.000183
0.000300
0.000214
0.000368
0.000279
0.000268
0.000426
0.000486
0.000264
0.000352
0.000454
0.000431
0.000454
0.000510
0.000471
0.000479
0.000538
0.000515
0.000537
0.000501
0.000583
0.000668
0.000577
0.000628
0.000631
0.000704
0.000653
0.000647
0.000826
0.000549
0.000631
0.000844
0.000663
0.000870
0.000736
0.000822
0.000770
0.002204
0.001090
0.000670
0.000907
