0.062470
0.215010
0.203935
0.211927
0.212944
0.203311
0.188612
0.180066
0.181439
0.189633
0.204767
0.202082
0.190416
0.179790
0.199371
0.191156
0.183082
0.180955
0.187332
0.180197
0.175723
0.178450
0.177989
0.177990
0.174690
0.174167
0.178144
0.173800
0.171925
0.173531
0.172672
0.175937
0.177076
0.177094
0.176381
0.179298
0.184170
0.186121
0.184698
0.188993
0.192987
0.197906
0.200001
0.191833
0.188149
0.171503
0.183642
0.196350
0.235778
0.302981
0.485350
0.361229
0.364553
0.351870
0.342851
0.394227
0.394267
1.033098
